…
``` r
#df
```

``` r
df
```

    ## # A tibble: 1,671,036 × 18
    ##    folio          categoria_incidente_c4 incidente_c4 anio_creacion mes_creacion
    ##    <chr>          <chr>                  <chr>                <dbl> <chr>       
    ##  1 C5/20220110/0… Medicos                Dolor                 2022 Enero       
    ##  2 C5/20220129/0… Derrame o fuga         Olor a gas …          2022 Enero       
    ##  3 C5/20220129/0… Cadaver                Muerte caus…          2022 Enero       
    ##  4 C5/20220129/0… Cadaver                Muerte por …          2022 Enero       
    ##  5 C5/20220129/0… Cadaver                Muerte por …          2022 Enero       
    ##  6 C5/20220129/0… Medicos                Infarto               2022 Enero       
    ##  7 C5/20220111/0… Cadaver                Muerte por …          2022 Enero       
    ##  8 C5/20220111/0… Derrame o fuga         Cilindro de…          2022 Enero       
    ##  9 C5/20220130/0… Cadaver                Muerte caus…          2022 Enero       
    ## 10 C5/20220130/0… Cadaver                Muerte caus…          2022 Enero       
    ## # ℹ 1,671,026 more rows
    ## # ℹ 13 more variables: fecha_creacion <date>, hora_creacion <time>,
    ## #   anio_cierre <dbl>, mes_cierre <chr>, fecha_cierre <date>,
    ## #   hora_cierre <time>, codigo_cierre <chr>, clas_con_f_alarma <chr>,
    ## #   alcaldia_cierre <chr>, colonia_cierre <chr>, manzana <chr>, latitud <dbl>,
    ## #   longitud <dbl>
…
``` r
# Calcular promedio de duración por categoría
promedio_por_categoria <- df %>%
  filter(!is.na(duracion_minutos), !is.na(categoria_incidente_c4)) %>%
  group_by(categoria_incidente_c4) %>%
  summarise(promedio_duracion_min = mean(duracion_minutos, na.rm = TRUE),cantidad_incidentes = n()) %>%
  arrange(desc(promedio_duracion_min))  # Opcional: ordenar por duración
# Mostrar resultado
print(promedio_por_categoria)
```

    ## # A tibble: 23 × 3
    ##    categoria_incidente_c4              promedio_duracion_min cantidad_incidentes
    ##    <chr>                                               <dbl>               <int>
    ##  1 Sismo                                               2651.                2384
    ##  2 Denuncia                                             519.              133330
    ##  3 Cadaver                                              335.                9439
    ##  4 Accidente                                            240.                  81
    ##  5 Intento de suicidio                                  224.                2658
    ##  6 Persona extraviada en zona boscosa                   220.                  80
    ##  7 Servicios                                            216.              271150
    ##  8 Derrame o fuga                                       200.               59808
    ##  9 Danos por fenomeno natural o terce…                  194.               23092
    ## 10 Abandono                                             175.               14983
    ## # ℹ 13 more rows
…
